<mxfile host="app.diagrams.net" modified="2022-09-22T08:38:32.501Z" agent="5.0 (Windows NT 10.0; Win64; x64) AppleWebKit/537.36 (KHTML, like Gecko) Chrome/105.0.0.0 Safari/537.36" etag="MSDnqmBnta-6TjnuyHpx" version="20.3.3" type="gitlab">
  <diagram id="rQTvNvN8RtJLej69gYMu" name="Page-1">
    <mxGraphModel dx="1550" dy="867" grid="1" gridSize="10" guides="1" tooltips="1" connect="1" arrows="1" fold="1" page="1" pageScale="1" pageWidth="827" pageHeight="1169" math="0" shadow="0">
      <root>
        <mxCell id="0" />
        <mxCell id="1" parent="0" />
        <mxCell id="dyWRVxHCMsftPnVXEZ2D-2" value="Référentiel" style="shape=cylinder3;whiteSpace=wrap;html=1;boundedLbl=1;backgroundOutline=1;size=15;" vertex="1" parent="1">
          <mxGeometry x="100" y="180" width="100" height="120" as="geometry" />
        </mxCell>
        <mxCell id="dyWRVxHCMsftPnVXEZ2D-3" value="Atlas" style="shape=cylinder3;whiteSpace=wrap;html=1;boundedLbl=1;backgroundOutline=1;size=15;" vertex="1" parent="1">
          <mxGeometry x="100" y="420" width="100" height="120" as="geometry" />
        </mxCell>
        <mxCell id="dyWRVxHCMsftPnVXEZ2D-7" value="" style="swimlane;startSize=0;" vertex="1" parent="1">
          <mxGeometry x="310" y="260" width="400" height="250" as="geometry" />
        </mxCell>
        <mxCell id="dyWRVxHCMsftPnVXEZ2D-8" value="Broker Kafka" style="text;html=1;align=center;verticalAlign=middle;resizable=0;points=[];autosize=1;strokeColor=none;fillColor=none;" vertex="1" parent="dyWRVxHCMsftPnVXEZ2D-7">
          <mxGeometry x="150" y="20" width="90" height="30" as="geometry" />
        </mxCell>
        <mxCell id="dyWRVxHCMsftPnVXEZ2D-9" value="Topics ZI" style="whiteSpace=wrap;html=1;aspect=fixed;" vertex="1" parent="dyWRVxHCMsftPnVXEZ2D-7">
          <mxGeometry x="30" y="85" width="80" height="80" as="geometry" />
        </mxCell>
        <mxCell id="dyWRVxHCMsftPnVXEZ2D-16" value="Topics ZU&lt;br&gt;Request" style="whiteSpace=wrap;html=1;aspect=fixed;" vertex="1" parent="dyWRVxHCMsftPnVXEZ2D-7">
          <mxGeometry x="150" y="85" width="80" height="80" as="geometry" />
        </mxCell>
        <mxCell id="dyWRVxHCMsftPnVXEZ2D-20" value="Topics ZU&lt;br&gt;Response" style="whiteSpace=wrap;html=1;aspect=fixed;" vertex="1" parent="dyWRVxHCMsftPnVXEZ2D-7">
          <mxGeometry x="280" y="85" width="80" height="80" as="geometry" />
        </mxCell>
        <mxCell id="dyWRVxHCMsftPnVXEZ2D-29" value="4" style="text;html=1;strokeColor=none;fillColor=none;align=center;verticalAlign=middle;whiteSpace=wrap;rounded=0;" vertex="1" parent="dyWRVxHCMsftPnVXEZ2D-7">
          <mxGeometry x="300" y="210" width="60" height="30" as="geometry" />
        </mxCell>
        <mxCell id="dyWRVxHCMsftPnVXEZ2D-10" value="" style="endArrow=classic;html=1;rounded=0;exitX=1;exitY=0.5;exitDx=0;exitDy=0;exitPerimeter=0;entryX=0;entryY=0.5;entryDx=0;entryDy=0;" edge="1" parent="1" source="dyWRVxHCMsftPnVXEZ2D-2" target="dyWRVxHCMsftPnVXEZ2D-9">
          <mxGeometry width="50" height="50" relative="1" as="geometry">
            <mxPoint x="390" y="470" as="sourcePoint" />
            <mxPoint x="440" y="420" as="targetPoint" />
          </mxGeometry>
        </mxCell>
        <mxCell id="dyWRVxHCMsftPnVXEZ2D-11" value="" style="endArrow=classic;html=1;rounded=0;exitX=1;exitY=0.5;exitDx=0;exitDy=0;exitPerimeter=0;entryX=0;entryY=0.5;entryDx=0;entryDy=0;" edge="1" parent="1" source="dyWRVxHCMsftPnVXEZ2D-3" target="dyWRVxHCMsftPnVXEZ2D-9">
          <mxGeometry width="50" height="50" relative="1" as="geometry">
            <mxPoint x="210" y="290" as="sourcePoint" />
            <mxPoint x="350" y="395" as="targetPoint" />
          </mxGeometry>
        </mxCell>
        <mxCell id="dyWRVxHCMsftPnVXEZ2D-12" value="connect" style="text;html=1;strokeColor=none;fillColor=none;align=center;verticalAlign=middle;whiteSpace=wrap;rounded=0;" vertex="1" parent="1">
          <mxGeometry x="240" y="260" width="60" height="30" as="geometry" />
        </mxCell>
        <mxCell id="dyWRVxHCMsftPnVXEZ2D-13" value="connect" style="text;html=1;strokeColor=none;fillColor=none;align=center;verticalAlign=middle;whiteSpace=wrap;rounded=0;" vertex="1" parent="1">
          <mxGeometry x="230" y="450" width="60" height="30" as="geometry" />
        </mxCell>
        <mxCell id="dyWRVxHCMsftPnVXEZ2D-14" value="KS Transformation" style="ellipse;whiteSpace=wrap;html=1;" vertex="1" parent="1">
          <mxGeometry x="360" y="520" width="120" height="80" as="geometry" />
        </mxCell>
        <mxCell id="dyWRVxHCMsftPnVXEZ2D-15" value="" style="endArrow=classic;html=1;rounded=0;exitX=0.5;exitY=1;exitDx=0;exitDy=0;" edge="1" parent="1" source="dyWRVxHCMsftPnVXEZ2D-9" target="dyWRVxHCMsftPnVXEZ2D-14">
          <mxGeometry width="50" height="50" relative="1" as="geometry">
            <mxPoint x="390" y="470" as="sourcePoint" />
            <mxPoint x="440" y="420" as="targetPoint" />
          </mxGeometry>
        </mxCell>
        <mxCell id="dyWRVxHCMsftPnVXEZ2D-17" value="" style="endArrow=classic;html=1;rounded=0;exitX=0.617;exitY=-0.007;exitDx=0;exitDy=0;exitPerimeter=0;entryX=0.5;entryY=1;entryDx=0;entryDy=0;" edge="1" parent="1" source="dyWRVxHCMsftPnVXEZ2D-14" target="dyWRVxHCMsftPnVXEZ2D-16">
          <mxGeometry width="50" height="50" relative="1" as="geometry">
            <mxPoint x="390" y="435" as="sourcePoint" />
            <mxPoint x="340" y="520" as="targetPoint" />
          </mxGeometry>
        </mxCell>
        <mxCell id="dyWRVxHCMsftPnVXEZ2D-18" value="KS Consommation" style="ellipse;whiteSpace=wrap;html=1;" vertex="1" parent="1">
          <mxGeometry x="530" y="530" width="120" height="80" as="geometry" />
        </mxCell>
        <mxCell id="dyWRVxHCMsftPnVXEZ2D-19" value="" style="endArrow=classic;html=1;rounded=0;exitX=0.5;exitY=1;exitDx=0;exitDy=0;entryX=0.367;entryY=0.013;entryDx=0;entryDy=0;entryPerimeter=0;" edge="1" parent="1" source="dyWRVxHCMsftPnVXEZ2D-16" target="dyWRVxHCMsftPnVXEZ2D-18">
          <mxGeometry width="50" height="50" relative="1" as="geometry">
            <mxPoint x="390" y="435" as="sourcePoint" />
            <mxPoint x="441.6181998097147" y="541.9234138915517" as="targetPoint" />
          </mxGeometry>
        </mxCell>
        <mxCell id="dyWRVxHCMsftPnVXEZ2D-22" value="" style="endArrow=classic;html=1;rounded=0;exitX=0.607;exitY=-0.017;exitDx=0;exitDy=0;entryX=0.5;entryY=1;entryDx=0;entryDy=0;exitPerimeter=0;" edge="1" parent="1" source="dyWRVxHCMsftPnVXEZ2D-18" target="dyWRVxHCMsftPnVXEZ2D-20">
          <mxGeometry width="50" height="50" relative="1" as="geometry">
            <mxPoint x="700" y="630" as="sourcePoint" />
            <mxPoint x="774.04" y="736.04" as="targetPoint" />
          </mxGeometry>
        </mxCell>
        <mxCell id="dyWRVxHCMsftPnVXEZ2D-23" value="BDD&lt;br&gt;Transco" style="shape=cylinder3;whiteSpace=wrap;html=1;boundedLbl=1;backgroundOutline=1;size=15;" vertex="1" parent="1">
          <mxGeometry x="545" y="650" width="90" height="110" as="geometry" />
        </mxCell>
        <mxCell id="dyWRVxHCMsftPnVXEZ2D-24" value="API VEOS" style="rhombus;whiteSpace=wrap;html=1;" vertex="1" parent="1">
          <mxGeometry x="700" y="530" width="80" height="80" as="geometry" />
        </mxCell>
        <mxCell id="dyWRVxHCMsftPnVXEZ2D-25" value="" style="endArrow=classic;startArrow=classic;html=1;rounded=0;exitX=0.5;exitY=0;exitDx=0;exitDy=0;exitPerimeter=0;" edge="1" parent="1" source="dyWRVxHCMsftPnVXEZ2D-23" target="dyWRVxHCMsftPnVXEZ2D-18">
          <mxGeometry width="50" height="50" relative="1" as="geometry">
            <mxPoint x="460" y="640" as="sourcePoint" />
            <mxPoint x="510" y="590" as="targetPoint" />
          </mxGeometry>
        </mxCell>
        <mxCell id="dyWRVxHCMsftPnVXEZ2D-26" value="" style="endArrow=classic;startArrow=classic;html=1;rounded=0;entryX=1;entryY=0.5;entryDx=0;entryDy=0;" edge="1" parent="1" source="dyWRVxHCMsftPnVXEZ2D-24" target="dyWRVxHCMsftPnVXEZ2D-18">
          <mxGeometry width="50" height="50" relative="1" as="geometry">
            <mxPoint x="535" y="660" as="sourcePoint" />
            <mxPoint x="571.4230110875565" y="615.1716786614688" as="targetPoint" />
          </mxGeometry>
        </mxCell>
        <mxCell id="dyWRVxHCMsftPnVXEZ2D-27" value="1,3" style="text;html=1;strokeColor=none;fillColor=none;align=center;verticalAlign=middle;whiteSpace=wrap;rounded=0;" vertex="1" parent="1">
          <mxGeometry x="530" y="610" width="60" height="30" as="geometry" />
        </mxCell>
        <mxCell id="dyWRVxHCMsftPnVXEZ2D-28" value="2" style="text;html=1;strokeColor=none;fillColor=none;align=center;verticalAlign=middle;whiteSpace=wrap;rounded=0;" vertex="1" parent="1">
          <mxGeometry x="650" y="570" width="60" height="30" as="geometry" />
        </mxCell>
        <mxCell id="dyWRVxHCMsftPnVXEZ2D-31" value="" style="endArrow=classic;html=1;rounded=0;exitX=0.5;exitY=0;exitDx=0;exitDy=0;entryX=1;entryY=0;entryDx=0;entryDy=37.5;entryPerimeter=0;" edge="1" parent="1" source="dyWRVxHCMsftPnVXEZ2D-20" target="dyWRVxHCMsftPnVXEZ2D-2">
          <mxGeometry width="50" height="50" relative="1" as="geometry">
            <mxPoint x="760.0000000000001" y="363.6400000000001" as="sourcePoint" />
            <mxPoint x="200" y="249" as="targetPoint" />
            <Array as="points">
              <mxPoint x="630" y="218" />
            </Array>
          </mxGeometry>
        </mxCell>
        <mxCell id="dyWRVxHCMsftPnVXEZ2D-32" value="connect (sink)" style="text;html=1;strokeColor=none;fillColor=none;align=center;verticalAlign=middle;whiteSpace=wrap;rounded=0;" vertex="1" parent="1">
          <mxGeometry x="400" y="180" width="60" height="30" as="geometry" />
        </mxCell>
      </root>
    </mxGraphModel>
  </diagram>
</mxfile>
